{
  "type": "service_account",
  "project_id": "nth-canto-236308",
  "private_key_id": "909ac8ce3225465ad17f127c14fa127c472ad8be",
  "private_key": "-----BEGIN PRIVATE KEY-----\nMIIEvwIBADANBgkqhkiG9w0BAQEFAASCBKkwggSlAgEAAoIBAQCo8440UKZMmTV8\nkMY0iDE1igwifoW60Uu6hC/0oN72RSy42jegb+b/nU2qxxYyaHm5l6dY5DqHiSTt\nylbzpaIad+uJKqVHNRqIawQstcpPXxIduppUWEK1LqlSrOi4RTku14ovtAxJ7lyf\nfRq39XbWkzq5znKXb6xD2r/5LBcMifsa41BRU91EGNWw8c7zh/grF0lkGUM7zaOS\nqUTroZSXEE9c7y33pk/GswrDQmqD+3qG3/vgHrD4SU51LxLBjS44eo9L+Tp043Hu\nESjlYB3dGAxM9p1t96TOcnCIQ6R8Ng6hAqHv1se+P5no8quk/3//qGNQ7hawPcE9\n7+p6eIYRAgMBAAECggEAECb0xfCd7X3KPMX0hQouNjGj9lpFO7aNuF+x2//TQRUc\n8PE/1zFLks19ouGUsC4H0SP8BkYPiGymoKszA+kmZcRoOr1efr/HcRpWFFYu6Mas\nizYPUhf8DKlQ28wXFaLclCtcFTJv6FOG/GJv/v1TJrF9sEzZ7Ltq6zPLHa3G6FZS\n6Hd6gUA9vdMMTrGpFvOYjTlI2IpA1X+UC8YtGr5nY/nrWdTZ58WHGyeDtpto8SMH\nKQYUcLRJblhEa+aXG+Q+r3Wsofk6xET1oqE0MrT+rlD3H1Nz8gP16vUPH5dNr8gs\nP5cmcaHrSPtNCcwls87Q9XCLoHfWldE/DhWOLttxbwKBgQDWMw6NMtAs29BwsEAB\nMMq3xSrHRyvL/z2m4XKWkUhBdGFyxOGYXyBPpKFGx+3dl6mvsM18wMlatOCICW6n\n0u3He4wjMWHb9NJlkbB4+tNXgPBljwl+LZxVo6UGyb7/JDPnrBSmtgN0+Z+xztIi\n9EJNATLZ92i8W4TKAB1gsALvQwKBgQDJ7ADZj8j3HFCPloZMUNvLFHAcdrsc05Rl\n45AVtUzLy8jQYyx2vhNGPTcN84/lTGuaVbmxFLijcKG4n84a3svAETAJm6YmcTSJ\ntivStgSopJycnhLnvwW7xdyrpKMddvwqRqaue1PY/iuptPQUaI+7p+Eilu7TzCON\nBBBtn1PuGwKBgQCKhgRgHj9w80suxVzvKC3BgPo0W/uf9tZZKS2g4B3Zbrlirp6y\nmrpbpz1BeCSFjQKJA48wocDWL2mRsH/mesuZmXW8gMAnroGue/SjmJq62UEefM2H\n01lqLOWZqTki6bfDmI7WbZl4ucKkC/vr7Qk/oYnQWmdagNk0hbR6Bfov3wKBgQCS\n6ohjw95xDcT/9IGanWqOhDxeOXVDMB7VU5HOea96yLdACCid7QaRIJEiMYkNSWEx\nVhZZ5b3CDX1dm8iWfGy7PsY492sYpV2YpVeVZKJXIg5hVhJjU/WT/g7lRFD6a0xm\nZil44nrLc4PJYsQE5V9PJoMEa9UxfWKQg9iAKmEi6QKBgQCPOrHWy2VMGVQSf9lC\nMfj564Y3DyDfoS64YpRHJzBwaVGTvCP2/n2n3X28Ojp7t1UHZqXoCgoQK9uxr3gK\nXCokJb/ah5HxyW6mh4zFWz55gaGdTMxaEATRO2p5/NcUIMt5qo4+B3tGaC9v3M03\nFyVp+LwVxkYor6j57U2vhTfP4w==\n-----END PRIVATE KEY-----\n",
  "client_email": "analyticsapi@nth-canto-236308.iam.gserviceaccount.com",
  "client_id": "102871040015200932180",
  "auth_uri": "https://accounts.google.com/o/oauth2/auth",
  "token_uri": "https://oauth2.googleapis.com/token",
  "auth_provider_x509_cert_url": "https://www.googleapis.com/oauth2/v1/certs",
  "client_x509_cert_url": "https://www.googleapis.com/robot/v1/metadata/x509/analyticsapi%40nth-canto-236308.iam.gserviceaccount.com"
}
